4986
1,
2,
3,
4,
5,
6,
7,
8,
9,
10,
11,
12,
4948,
4951,
4953,
7478,
7479,
7480,
7481,
7482,
7483,
7484,
7485,
7486,
7487,
7488,
7489,
7490,
7491,
7492,
7493,
7494,
7495,
7496,
7497,
7498,
7499,
7500,
7501,
7502,
7503,
7504,
7505,
7506,
7507,
7508,
7509,
7510,
7511,
7512,
7513,
7514,
7515,
7516,
7517,
7518,
7519,
7520,
7521,
7522,
7523,
7524,
7525,
7526,
7527,
7528,
7529,
7530,
7531,
7532,
7533,
7534,
7535,
7536,
7537,
7538,
7539,
7540,
7541,
7542,
7543,
7544,
7545,
7546,
7547,
7548,
7549,
7550,
7551,
7552,
7553,
7554,
7555,
7556,
7557,
7558,
7559,
7560,
7561,
7562,
7563,
7564,
7565,
7566,
7567,
7568,
7569,
7570,
7571,
7572,
7573,
7574,
7575,
7576,
7577,
7578,
7579,
7580,
7581,
7582,
7583,
7584,
7585,
7586,
7587,
7588,
7589,
7590,
7591,
7592,
7593,
7594,
7595,
7596,
7597,
7598,
7599,
7600,
7601,
7602,
7603,
7604,
7605,
7606,
7607,
7608,
7609,
7610,
7611,
7612,
7613,
7614,
7615,
7616,
7617,
7618,
7619,
7620,
7621,
7622,
7623,
7624,
7625,
7626,
7627,
7628,
7629,
7630,
7631,
7632,
7633,
7634,
7635,
7636,
7637,
7638,
7639,
7640,
7641,
7642,
7643,
7644,
7645,
7646,
7647,
7648,
7649,
7650,
7651,
7652,
7653,
7654,
7655,
7656,
7657,
7658,
7659,
7660,
7661,
7662,
7663,
7664,
7665,
7666,
7667,
7668,
7669,
7670,
7671,
7672,
7673,
7674,
7675,
7676,
7677,
7678,
7679,
7680,
7681,
7682,
7683,
7684,
7685,
7686,
7687,
7688,
7689,
7690,
7691,
7692,
7693,
7694,
7695,
7696,
7697,
7698,
7699,
7700,
7701,
7702,
7703,
7704,
7705,
7706,
7707,
7708,
7709,
7710,
7711,
7712,
7713,
7714,
7715,
7716,
7717,
7718,
7719,
7720,
7721,
7722,
7723,
7724,
7725,
7726,
7727,
7728,
7729,
7730,
7731,
7732,
7733,
7734,
7735,
7736,
7737,
7738,
7739,
7740,
7741,
7742,
7743,
7744,
7745,
7746,
7747,
7748,
7749,
7750,
7751,
7752,
7753,
7754,
7755,
7756,
7757,
7758,
7759,
7760,
7761,
7762,
7763,
7764,
7765,
7766,
7767,
7768,
7769,
7770,
7771,
7772,
7773,
7774,
7775,
7776,
7777,
7778,
7779,
7780,
7781,
7782,
7783,
7784,
7785,
7786,
7787,
7788,
7789,
7790,
7791,
7792,
7793,
7794,
7795,
7796,
7797,
7798,
7799,
7800,
7801,
7802,
7803,
7804,
7805,
7806,
7807,
7808,
7809,
7810,
7811,
7812,
7813,
7814,
7815,
7816,
7817,
7818,
7819,
7820,
7821,
7822,
7823,
7824,
7825,
7826,
7827,
7828,
7829,
7830,
7831,
7832,
7833,
7834,
7835,
7836,
7837,
7838,
7839,
7840,
7841,
7842,
7843,
7844,
7845,
7846,
7847,
7848,
7849,
7850,
7851,
7852,
7853,
7854,
7855,
7856,
7857,
7858,
7859,
7860,
7861,
7862,
7863,
7864,
7865,
7866,
7867,
7868,
7869,
7870,
7871,
7872,
7873,
7874,
7875,
7876,
7877,
7878,
7879,
7880,
7881,
7882,
7883,
7884,
7885,
7886,
7887,
7888,
7889,
7890,
7891,
7892,
7893,
7894,
7895,
7896,
7897,
7898,
7899,
7900,
7901,
7902,
7903,
7904,
7905,
7906,
7907,
7908,
7909,
7910,
7911,
7912,
7913,
7914,
7915,
7916,
7917,
7918,
7919,
7920,
7921,
7922,
7923,
7924,
7925,
7926,
7927,
7928,
7929,
7930,
7931,
7932,
7933,
7934,
7935,
7936,
7937,
7938,
7939,
7940,
7941,
7942,
7943,
7944,
7945,
7946,
7947,
7948,
7949,
7950,
7951,
7952,
7953,
7954,
7955,
7956,
7957,
7958,
7959,
7960,
7961,
7962,
7963,
7964,
7965,
7966,
7967,
7968,
7969,
7970,
7971,
7972,
7973,
7974,
7975,
7976,
7977,
7978,
7979,
7980,
7981,
7982,
7983,
7984,
7985,
7986,
7987,
7988,
7989,
7990,
7991,
7992,
7993,
7994,
7995,
7996,
7997,
7998,
7999,
8000,
8001,
8002,
8003,
8004,
8005,
8006,
8007,
8008,
8009,
8010,
8011,
8012,
8013,
8014,
8015,
8016,
8017,
8018,
8019,
8020,
8021,
8022,
8023,
8024,
8025,
8026,
8027,
8028,
8029,
8030,
8031,
8032,
8033,
8034,
8035,
8036,
8037,
8038,
8039,
8040,
8041,
8042,
8043,
8044,
8045,
8046,
8047,
8048,
8049,
8050,
8051,
8052,
8053,
8054,
8055,
8056,
8057,
8058,
8059,
8060,
8061,
8062,
8063,
8064,
8065,
8066,
8067,
8068,
8069,
8070,
8071,
8072,
8073,
8074,
8075,
8076,
8077,
8078,
8079,
8080,
8081,
8082,
8083,
8084,
8085,
8086,
8087,
8088,
8089,
8090,
8091,
8092,
8093,
8094,
8095,
8096,
8097,
8098,
8099,
8100,
8101,
8102,
8103,
8104,
8105,
8106,
8107,
8108,
8109,
8110,
8111,
8112,
8113,
8114,
8115,
8116,
8117,
8118,
8119,
8120,
8121,
8122,
8123,
8124,
8125,
8126,
8127,
8128,
8129,
8130,
8131,
13879,
13918,
13919,
13946,
13983,
62949,
62950,
62951,
62952,
62953,
62954,
62955,
62956,
62957,
62958,
64331,
68736,
68737,
68739,
68741,
68742,
68743,
68744,
68745,
68747,
68748,
68749,
68750,
68751,
68768,
68770,
68772,
68774,
68775,
68779,
68785,
68807,
68816,
68826,
68830,
68840,
68847,
68853,
68856,
68860,
68866,
72011,
72012,
72013,
72014,
72015,
72016,
72017,
72018,
72019,
72020,
72021,
72022,
72023,
72024,
72025,
72026,
72027,
72028,
72029,
72030,
72031,
72032,
72033,
72034,
72035,
72036,
72037,
72038,
72039,
72040,
72041,
72042,
72043,
72044,
72045,
72046,
72047,
72048,
72049,
72050,
72051,
72052,
72053,
72054,
72055,
72056,
72057,
72058,
72059,
72060,
72061,
72062,
72063,
72064,
72065,
72066,
72067,
72068,
72069,
72070,
72071,
72072,
72073,
72074,
72075,
72076,
72077,
72078,
72079,
72080,
72081,
72082,
72083,
72084,
72085,
72086,
72087,
72088,
72089,
72090,
72091,
72092,
72093,
72094,
72095,
72096,
72097,
72098,
72099,
72100,
72101,
72102,
72103,
72104,
72105,
72106,
72107,
72108,
72109,
72110,
72111,
72112,
72113,
72114,
72115,
72116,
72117,
72118,
72119,
72120,
72121,
72122,
72123,
72124,
72125,
72126,
72127,
72128,
72129,
72130,
72131,
72132,
72133,
72134,
72135,
72136,
72137,
72138,
72139,
72140,
72141,
72142,
72143,
72144,
72145,
72146,
72147,
72148,
72149,
72150,
72151,
72152,
72153,
72154,
72155,
72156,
72157,
72158,
72159,
72160,
72161,
72162,
72163,
72164,
72165,
72166,
72167,
72168,
72169,
72170,
72171,
72172,
72173,
72174,
72175,
72176,
72177,
72178,
72179,
72180,
72181,
72182,
72183,
72184,
72185,
72186,
72187,
72188,
72189,
72190,
72191,
72192,
72193,
72194,
72195,
72196,
72197,
72198,
72199,
72200,
72201,
72202,
72203,
72204,
72205,
72206,
72207,
72208,
72209,
72210,
72211,
72212,
72213,
72214,
72215,
72216,
72217,
72218,
72219,
72220,
72221,
72222,
72223,
72224,
72225,
72226,
72227,
72228,
72229,
72230,
72231,
72232,
72233,
72234,
72235,
72236,
72237,
72238,
72239,
72240,
72241,
72242,
72243,
72244,
72245,
72246,
72247,
72248,
72249,
72250,
72251,
72252,
72253,
72254,
72255,
72256,
72257,
72258,
72259,
72260,
72261,
72262,
72263,
72264,
72265,
72266,
72267,
72268,
72269,
72270,
72271,
72272,
72273,
72274,
72275,
72276,
72277,
72278,
72279,
72280,
72281,
72282,
72283,
72284,
72285,
72286,
72287,
72288,
72289,
72290,
72291,
72292,
72293,
72294,
72295,
72296,
72297,
72298,
72299,
72300,
72301,
72302,
72303,
72304,
72305,
72306,
72307,
72308,
72309,
72310,
72311,
72312,
72313,
72314,
72315,
72316,
72317,
72318,
72319,
72320,
72321,
72322,
72323,
72324,
72325,
72326,
72327,
72328,
72329,
72330,
72331,
72332,
72333,
72334,
72335,
72336,
72337,
72338,
72339,
72340,
72341,
72342,
72343,
72344,
72345,
72346,
72347,
72348,
72349,
72350,
72351,
72352,
72353,
72354,
72355,
72356,
72357,
72358,
72359,
72360,
72361,
72362,
72363,
72364,
72365,
72366,
72367,
72368,
72369,
72370,
72371,
72372,
72373,
72374,
72375,
72376,
72377,
72378,
72379,
72380,
72381,
72382,
72383,
72384,
72385,
72386,
72387,
72388,
72389,
72390,
72391,
72392,
72393,
72394,
72395,
72396,
72397,
72398,
72399,
72400,
72401,
72402,
72403,
72404,
72405,
72406,
72407,
72408,
72409,
72410,
72411,
72412,
72413,
72414,
72415,
72416,
72417,
72418,
72419,
72420,
72421,
72422,
72423,
72424,
72425,
72426,
72427,
72428,
72429,
72430,
72431,
72432,
72433,
72434,
72435,
72436,
72437,
72438,
72439,
72440,
72441,
72442,
72443,
72444,
72445,
72446,
72447,
72448,
72449,
72450,
72451,
72452,
72453,
72454,
72455,
72456,
72457,
72458,
72459,
72460,
72461,
72462,
72463,
72464,
72465,
72466,
72467,
72468,
72469,
72470,
72471,
72472,
72473,
72474,
72475,
72476,
72477,
72478,
72479,
72480,
72481,
72482,
72483,
72484,
72485,
72486,
72487,
72488,
72489,
72490,
72491,
72492,
72493,
72494,
72495,
72496,
72497,
72498,
72499,
72500,
72501,
72502,
72503,
72504,
72505,
72506,
72507,
72508,
72509,
72510,
72511,
72512,
72513,
72514,
72515,
72516,
72517,
72518,
72519,
72520,
72521,
72522,
72523,
72524,
72525,
72526,
72527,
72528,
72529,
72530,
72531,
72532,
72533,
72534,
72535,
72536,
72537,
72538,
72539,
72540,
72541,
72542,
72543,
72544,
72545,
72546,
72547,
72548,
72549,
72550,
72551,
72552,
72553,
72554,
72555,
72556,
72557,
72558,
72559,
72560,
72561,
72562,
72563,
72564,
72565,
72566,
72567,
72568,
72569,
72570,
72571,
72572,
72573,
72574,
72575,
72576,
72577,
72578,
72579,
72580,
72581,
72582,
72583,
72584,
72585,
72586,
72587,
72588,
72589,
72590,
72605,
72615,
72636,
72646,
72659,
72664,
72679,
72687,
72689,
72691,
72693,
72698,
72708,
72712,
72714,
72722,
72776,
72782,
72792,
72805,
72808,
72813,
72818,
72821,
72822,
72823,
72826,
72836,
72837,
72846,
72856,
72858,
72861,
72875,
72887,
72892,
72895,
72897,
72905,
72931,
72939,
72946,
72951,
72958,
72967,
72989,
73006,
73007,
73019,
73023,
73026,
73028,
73036,
73051,
73056,
73063,
73064,
73065,
73068,
73069,
73070,
73076,
73078,
73090,
73093,
73094,
73095,
73096,
73097,
73098,
73099,
73100,
73101,
73102,
73103,
73104,
73105,
73106,
73107,
73108,
73109,
73110,
73111,
73112,
73113,
73114,
73115,
73116,
73117,
73118,
73119,
73120,
73121,
73122,
73123,
73124,
73125,
73126,
73127,
73128,
73129,
73130,
73131,
73132,
73133,
73134,
73135,
73136,
73137,
73138,
73139,
73140,
73144,
73148,
73149,
73150,
73151,
73152,
73153,
73154,
73155,
73156,
73157,
73158,
73159,
73160,
73161,
73162,
73163,
73164,
73165,
73166,
73167,
73168,
73169,
73170,
73171,
73178,
73179,
79298,
79309,
81859,
81860,
81861,
81862,
81863,
81864,
81865,
81866,
81867,
81868,
81869,
81870,
81871,
81872,
81873,
81874,
81875,
81876,
81877,
81878,
81879,
81880,
81881,
81882,
81883,
81884,
81885,
81886,
81887,
81888,
81889,
81890,
81891,
81892,
81893,
81894,
81895,
81896,
81897,
81898,
81899,
81900,
81901,
81902,
81903,
81904,
81905,
81906,
81907,
81908,
81909,
81910,
81911,
81912,
81913,
81914,
81915,
81916,
81917,
81918,
81919,
81920,
81921,
81922,
81923,
81924,
81925,
81926,
81927,
81928,
81929,
81930,
81931,
81932,
81933,
81934,
81935,
81936,
81937,
81938,
81939,
81940,
81941,
81942,
81943,
81944,
81945,
81946,
81947,
81948,
81949,
81950,
81951,
81952,
81953,
81954,
81955,
81956,
81957,
81958,
81959,
81960,
81961,
81962,
81963,
81964,
81965,
81966,
81967,
81968,
81969,
81970,
81971,
81972,
81973,
81974,
81975,
81976,
81977,
81978,
81979,
81980,
81981,
81982,
81983,
81984,
81985,
81986,
81987,
81988,
81989,
81990,
81991,
81992,
81993,
81994,
81995,
81996,
81997,
81998,
81999,
82000,
82001,
82002,
82003,
82004,
82005,
82006,
82007,
82008,
82009,
82010,
82011,
82012,
82013,
82014,
82015,
82016,
82017,
82018,
82019,
82020,
82021,
82022,
82023,
82024,
82025,
82026,
82027,
82028,
82029,
82030,
82031,
82032,
82033,
82034,
82035,
82036,
82037,
82038,
82039,
82040,
82041,
82042,
82043,
82044,
82045,
82046,
82047,
82048,
82049,
82050,
82051,
82052,
82053,
82054,
82055,
82056,
82057,
82058,
82059,
82060,
82061,
82062,
82063,
82064,
82065,
82066,
82067,
82068,
82069,
82070,
82071,
82072,
82073,
82074,
82075,
82076,
82077,
82078,
82079,
82080,
82081,
82082,
82083,
82084,
82085,
82086,
82087,
82088,
82089,
82090,
82091,
82092,
82093,
82094,
82095,
82096,
82097,
82098,
82099,
82100,
82101,
82102,
82103,
82104,
82105,
82106,
82107,
82108,
82109,
82110,
82111,
82112,
82113,
82114,
82115,
82116,
82117,
82118,
82119,
82120,
82121,
82122,
82123,
82124,
82125,
82126,
82127,
82128,
82129,
82130,
82131,
82132,
82133,
82134,
82135,
82136,
82137,
82138,
82139,
82140,
82141,
82142,
82143,
82144,
82145,
82146,
82147,
82148,
82149,
82150,
82151,
82152,
82153,
82154,
82155,
82156,
82157,
82158,
82159,
82160,
82161,
82162,
82163,
82164,
82165,
82166,
82167,
82168,
82169,
82170,
82171,
82172,
82173,
82174,
82175,
82176,
82177,
82178,
82179,
82180,
82181,
82182,
82183,
82184,
82185,
82186,
82187,
82188,
82189,
82190,
82191,
82192,
82193,
82194,
82195,
82196,
82197,
82198,
82199,
82200,
82201,
82202,
82203,
82204,
82205,
82206,
82207,
82208,
82209,
82210,
82211,
82212,
82213,
82214,
82215,
82216,
82217,
82218,
82219,
82220,
82221,
82222,
82223,
82224,
82225,
82226,
82227,
82228,
82229,
82230,
82231,
82232,
82233,
82234,
82235,
82236,
82237,
82238,
82239,
82240,
82241,
82242,
82243,
82244,
82245,
82246,
82247,
82248,
82249,
82250,
82251,
82252,
82253,
82254,
82255,
82256,
82257,
82258,
82259,
82260,
82261,
82262,
82263,
82264,
82265,
82266,
82267,
82268,
82269,
82270,
82271,
82272,
82273,
82274,
82275,
82276,
82277,
82278,
82279,
82280,
82281,
82282,
82283,
82284,
82285,
82286,
82287,
82288,
82289,
82290,
82291,
82292,
82293,
82294,
82295,
82296,
82297,
82298,
82299,
82300,
82301,
82302,
82303,
82304,
82305,
82306,
82307,
82308,
82309,
82310,
82311,
82312,
82313,
82314,
82315,
82316,
82317,
82318,
82319,
82320,
82321,
82322,
82323,
82324,
82325,
82326,
82327,
82328,
82329,
82330,
82331,
82332,
82333,
82334,
82335,
82336,
82337,
82338,
82339,
82340,
82341,
82342,
82343,
82344,
82345,
82346,
82347,
82348,
82349,
82350,
82351,
82352,
82353,
82354,
82355,
82356,
82357,
82358,
82359,
82360,
82361,
82362,
82363,
82364,
82365,
82366,
82367,
82368,
82369,
82370,
82371,
82372,
82373,
82374,
82375,
82376,
82377,
82378,
82379,
82380,
82381,
82382,
82383,
82384,
82385,
82386,
82387,
82388,
82389,
82390,
82391,
82392,
82393,
82394,
82395,
82396,
82397,
82398,
82399,
82400,
82401,
82402,
82403,
82404,
82405,
82406,
82407,
82408,
82409,
82410,
82411,
82412,
82413,
82414,
82415,
82416,
82417,
82418,
82419,
82420,
82421,
82422,
82423,
82424,
82425,
82426,
82427,
82428,
82429,
82430,
82431,
82432,
82433,
82434,
82435,
82436,
82437,
82438,
82439,
82440,
82441,
82442,
82443,
82444,
82445,
82446,
82447,
82448,
82449,
82450,
82451,
82452,
82453,
82454,
82455,
82456,
82457,
82458,
82459,
82460,
82461,
82462,
82463,
82464,
82465,
82466,
82467,
82468,
82469,
82470,
82471,
82472,
82473,
82474,
82475,
82476,
82477,
82478,
82479,
82480,
82481,
82482,
82483,
82484,
82485,
83114,
83115,
83116,
83117,
83118,
83119,
83120,
83121,
83122,
83123,
83124,
84433,
84434,
84435,
84436,
84437,
84441,
84448,
84450,
90095,
90097,
99056,
99061,
99063,
103034,
103035,
103036,
103037,
103038,
103039,
103040,
103041,
103042,
103043,
105236,
105238,
105239,
107784,
107806,
107838,
107839,
107840,
107841,
107899,
107900,
107901,
107902,
107903,
107925,
107942,
107946,
107947,
107948,
107981,
108011,
108012,
108013,
108071,
108072,
108073,
108074,
108075,
108076,
108077,
108078,
108080,
108082,
108111,
108112,
108113,
108114,
108115,
108116,
108117,
108118,
108119,
108120,
108121,
108122,
108123,
108124,
108125,
108126,
108127,
108128,
108129,
108130,
108131,
108132,
108133,
108134,
108135,
108136,
108137,
108138,
108139,
108140,
110858,
110909,
111814,
111816,
111818,
111820,
111822,
111824,
116550,
119536,
119645,
119696,
119786,
119810,
119876,
120017,
120057,
120129,
121081,
121565,
126061,
126062,
126063,
126064,
126065,
126066,
126067,
129871,
129872,
131431,
131432,
131433,
131434,
131435,
131436,
131437,
131438,
131443,
131444,
131445,
131446,
131447,
131448,
131449,
131450,
131451,
131452,
131453,
131454,
131455,
131456,
131457,
131462,
131470,
131471,
131472,
131473,
131474,
131475,
131476,
131480,
131481,
131482,
131483,
131484,
131485,
131486,
131487,
131488,
131489,
131490,
131491,
131492,
131493,
131494,
131495,
131496,
131497,
131498,
131499,
131500,
131501,
131502,
131503,
131504,
131505,
131506,
131507,
131508,
131509,
131510,
131511,
131512,
131513,
131514,
131515,
131516,
131517,
131518,
131519,
131520,
131521,
131523,
131529,
131531,
131537,
131541,
131544,
131545,
131549,
131554,
131561,
131562,
131563,
131564,
131565,
131566,
131567,
131568,
131569,
131572,
131573,
131574,
131590,
131604,
131613,
131619,
131628,
131643,
131652,
131660,
131667,
131671,
131691,
131695,
131697,
131702,
131707,
131711,
131728,
131741,
131746,
131760,
131777,
131787,
131800,
131805,
131817,
131851,
131852,
131853,
132016,
132017,
132118,
132119,
145830,
145834,
145836,
145838,
145840,
145845,
145848,
145854,
145856,
145859,
148229,
148230,
148231,
148232,
148233,
148234,
148235,
148237,
148238,
148239,
148240,
148241,
148242,
148243,
148245,
148246,
148247,
148248,
148249,
148250,
148251,
148252,
148253,
148254,
148255,
148256,
148257,
148258,
148259,
148260,
148261,
148262,
148263,
148264,
148265,
148266,
148267,
148268,
148269,
148270,
148271,
148273,
148274,
148275,
148276,
148277,
148278,
148279,
148280,
148282,
148285,
148287,
148603,
148604,
148605,
148606,
148607,
148608,
148609,
148610,
148611,
148613,
148614,
148615,
148616,
148618,
150115,
157260,
166456,
166589,
166835,
166840,
166852,
169431,
169434,
169435,
169807,
173397,
173398,
174188,
174762,
182709,
182710,
182712,
182713,
182715,
182717,
182729,
182837,
182843,
182860,
182868,
182936,
212907,
212908,
212909,
212910,
212911,
212912,
212913,
212914,
212915,
212916,
212917,
212918,
212919,
212920,
212921,
212922,
212923,
212924,
212925,
212926,
212927,
212928,
212929,
212930,
212931,
212932,
212933,
212934,
212935,
212936,
212937,
212938,
212939,
212940,
212941,
212942,
212943,
212944,
212945,
212946,
212947,
212948,
212949,
212950,
212951,
212952,
212953,
212954,
212955,
212956,
212957,
212958,
212959,
212960,
212961,
212962,
212963,
212964,
212965,
212966,
212967,
212968,
212969,
212970,
212971,
212972,
212973,
212974,
212975,
212976,
212977,
212978,
212979,
212980,
212981,
212982,
212983,
212984,
212985,
212986,
212987,
212988,
212989,
212990,
212991,
212992,
212993,
212994,
212995,
212996,
212997,
212998,
212999,
213000,
213001,
213002,
213003,
213004,
213005,
213006,
213007,
213008,
213009,
213048,
213063,
213092,
213122,
213138,
213139,
213140,
213141,
213142,
213155,
213164,
213171,
213172,
213174,
213190,
213205,
213210,
213234,
213235,
213287,
213288,
213309,
213316,
213365,
213379,
213444,
213445,
213452,
215689,
215690,
215699,
223474,
239652,
239653,
239654,
239655,
239656,
239657,
239658,
239659,
239660,
239661,
239662,
239663,
239664,
239665,
239666,
239667,
239668,
239669,
239670,
239671,
239672,
239673,
239674,
239675,
239676,
239677,
239678,
239679,
239680,
239681,
239682,
239683,
239684,
239685,
239686,
239687,
239688,
239689,
239690,
239691,
239692,
239693,
239694,
239695,
239696,
239697,
239698,
239699,
239700,
239701,
239702,
239703,
239704,
239705,
239706,
239707,
239708,
239709,
239710,
239711,
239712,
239713,
239714,
239715,
239716,
239717,
239718,
239719,
239720,
239721,
239722,
239723,
239724,
239725,
239726,
239727,
239728,
239729,
239730,
239731,
239732,
239733,
239734,
239735,
239736,
239737,
239738,
239739,
239740,
239741,
239742,
239743,
239744,
239745,
239746,
239747,
239748,
239749,
239750,
239751,
239752,
239753,
239754,
239755,
239756,
239757,
239758,
239759,
239760,
239761,
239762,
239763,
239764,
239765,
239766,
239767,
239768,
239769,
239770,
239771,
239772,
239773,
239774,
239775,
239776,
239777,
239778,
239779,
239780,
239781,
239782,
239783,
239784,
239785,
239786,
239787,
239788,
239789,
239790,
239791,
239792,
239793,
239794,
239795,
239796,
239797,
239798,
239799,
239800,
239801,
239802,
239803,
239804,
239805,
239806,
239807,
239808,
239809,
239810,
239811,
239812,
239813,
239814,
239815,
239816,
239817,
239818,
239819,
239820,
239821,
239822,
239823,
239824,
239825,
239826,
239827,
239828,
239829,
239830,
239831,
239832,
239833,
239834,
239835,
239836,
239837,
239838,
239839,
239840,
239841,
239842,
239843,
239844,
239845,
239846,
239847,
239848,
239849,
239850,
239851,
239852,
239853,
239854,
239855,
239856,
239857,
239858,
239859,
239860,
239861,
239862,
239863,
239864,
239865,
239866,
239867,
239868,
239869,
239870,
239871,
239872,
239873,
239874,
239875,
239876,
239877,
239878,
239879,
239880,
239881,
239882,
239883,
239884,
239885,
239886,
239887,
239888,
239889,
239890,
239891,
239892,
239893,
239894,
239895,
239896,
239897,
239898,
239899,
239900,
239901,
239902,
239903,
239904,
239905,
239906,
239907,
239908,
239909,
239910,
239911,
239912,
239913,
239914,
239915,
239916,
239917,
239918,
239919,
239920,
239921,
239922,
239923,
239924,
239925,
239926,
239927,
239928,
239929,
239930,
239931,
239932,
239933,
239934,
239935,
239936,
239937,
239938,
239939,
239940,
239941,
239942,
239943,
239944,
239945,
239946,
239947,
239948,
239949,
239950,
239951,
239952,
239953,
239954,
239955,
239956,
239957,
239958,
239959,
239960,
239961,
239962,
239963,
239964,
239965,
239966,
239967,
239968,
239969,
239970,
239971,
239972,
239973,
239974,
239975,
239976,
239977,
239978,
239979,
239980,
239981,
239982,
239983,
239984,
239985,
239986,
239987,
239988,
239989,
239990,
239991,
239992,
239993,
239994,
239995,
239996,
239997,
239998,
239999,
240000,
240001,
240002,
240003,
240004,
240005,
240006,
240007,
240008,
240009,
240010,
240011,
240012,
240013,
240014,
240015,
240016,
240017,
240018,
240019,
240020,
240021,
240022,
240023,
240024,
240025,
240026,
240027,
240028,
240029,
240030,
240031,
240032,
240033,
240034,
240035,
240036,
240037,
240038,
240039,
240040,
240041,
240042,
240043,
240044,
240045,
240046,
240047,
240048,
240049,
240050,
240051,
240052,
240053,
240054,
240055,
240057,
240058,
240059,
240060,
240061,
269057,
269058,
269059,
269060,
269061,
279328,
279330,
279334,
279344,
279367,
279424,
279474,
279526,
279620,
279859,
283376,
283378,
283380,
291012,
292383,
292384,
292385,
307897,
307968,
322824,
323026,
327029,
327037,
332539,
332540,
332541,
332542,
332543,
332544,
332545,
332546,
332547,
332548,
332549,
332550,
332551,
332552,
332553,
332554,
332555,
332556,
332557,
332558,
332559,
332560,
332561,
332562,
332563,
332564,
332565,
332566,
332567,
332568,
332569,
332570,
332571,
332572,
332573,
332574,
332575,
332576,
332577,
332578,
332579,
332580,
332581,
332582,
332583,
332584,
332585,
332586,
332587,
332588,
332589,
332590,
332591,
332592,
332593,
332594,
332595,
332596,
332597,
332598,
332599,
332600,
332601,
332602,
332603,
332604,
332605,
332606,
332607,
332608,
332609,
332610,
332611,
332612,
332613,
332614,
332615,
332616,
332617,
332618,
332619,
332620,
332621,
332622,
332623,
332624,
332625,
332626,
332627,
332628,
332629,
332630,
332631,
332632,
332633,
332634,
332635,
332636,
332637,
332638,
332639,
332640,
332641,
332642,
332643,
332644,
332645,
332646,
332647,
332648,
332649,
332650,
332651,
332652,
332653,
332654,
332655,
332656,
332657,
332658,
332659,
332660,
332661,
332662,
332663,
332664,
332665,
332666,
332667,
332668,
332669,
332670,
332671,
332672,
332673,
332674,
332675,
332676,
332677,
332678,
332679,
332680,
332681,
332682,
332683,
332684,
332685,
332686,
332687,
332688,
332689,
332690,
332691,
332692,
332693,
332694,
332695,
332696,
332697,
332698,
332699,
332700,
332701,
332702,
332703,
332704,
332705,
332706,
332707,
332708,
332709,
332710,
332711,
332712,
332713,
332714,
332715,
332716,
332717,
332718,
332719,
332720,
332721,
332722,
332723,
332724,
332725,
332726,
332727,
332728,
332729,
332730,
332731,
332732,
332733,
332734,
332735,
332736,
332737,
332738,
332739,
332740,
332741,
332742,
332743,
332744,
332745,
332746,
332747,
332748,
332749,
332750,
332751,
332752,
332753,
332754,
332755,
332756,
332757,
332758,
332759,
332760,
332761,
332762,
332763,
332764,
332765,
332766,
332767,
332768,
332769,
332770,
332771,
332772,
332773,
332774,
332775,
332776,
332777,
332778,
332779,
332780,
332781,
332782,
332783,
332784,
332785,
332786,
332787,
332788,
332789,
332790,
332791,
332792,
332793,
332794,
332795,
332796,
332797,
332798,
332799,
332800,
332801,
332802,
332803,
332804,
332805,
332806,
332807,
332808,
332809,
332810,
332811,
332812,
332814,
332815,
332816,
332818,
332819,
332820,
332821,
332822,
332823,
332824,
332825,
332827,
332828,
332829,
332830,
332831,
332832,
332833,
332834,
333080,
333081,
333082,
333083,
336469,
336470,
336471,
336472,
336474,
336476,
336477,
336478,
336479,
336480,
346931,
346932,
359967,
359972,
359978,
359981,
360001,
360027,
360056,
360064,
360068,
360070,
363041,
363066,
363080,
363141,
363174,
363176,
363199,
363200,
363201,
363246,
363247,
363264,
363838,
363842,
363845,
363847,
363848,
363849,
363850,
363851,
363852,
363853,
363854,
363855,
366883,
366888,
366891,
366892,
366893,
366894,
366896,
366900,
366930,
367015,
390091,
390110,
390120,
390126,
390140,
390176,
390195,
390207,
390214,
390223,
390235,
390240,
399879,
399881,
399882,
399883,
399884,
399885,
399886,
399887,
399888,
399889,
399890,
399891,
399892,
399893,
399894,
399895,
399896,
399899,
399901,
399902,
406684,
406685,
406686,
406687,
406688,
406689,
406690,
406691,
406692,
406693,
406694,
406695,
406696,
406697,
406698,
406699,
406700,
406701,
406702,
406703,
406704,
406705,
406706,
406707,
406708,
406709,
406710,
406711,
406712,
406713,
406714,
406715,
406716,
406717,
406718,
406719,
406720,
406721,
406722,
406723,
406724,
406725,
406726,
406727,
406728,
406729,
406730,
406731,
406732,
406733,
406734,
406735,
406736,
406737,
406738,
406739,
406740,
406741,
406742,
406743,
406744,
406745,
406746,
406747,
406748,
406749,
406750,
406751,
406752,
406753,
406754,
406755,
406756,
406757,
406758,
406759,
406760,
406761,
406762,
406763,
406764,
406765,
406766,
406767,
406768,
406769,
406770,
406771,
406772,
406773,
406774,
406775,
406776,
406777,
406778,
406779,
406780,
406781,
406782,
406783,
406784,
406785,
406786,
406787,
406788,
406789,
406790,
406791,
406792,
406793,
406794,
406795,
406796,
406797,
406798,
406799,
406800,
406801,
406802,
406803,
406804,
406805,
406806,
406807,
406808,
406809,
406810,
406811,
406812,
406813,
406814,
406815,
406816,
406817,
406818,
406819,
406820,
406821,
406822,
406823,
406824,
406825,
406826,
406827,
406828,
406829,
406830,
406831,
406832,
406833,
406834,
406835,
406836,
406837,
406838,
406839,
406840,
406841,
406842,
406843,
406844,
406845,
406846,
406847,
406848,
406849,
406850,
406851,
406852,
406853,
406854,
406855,
406856,
406857,
406858,
406859,
406860,
406861,
406862,
406863,
406864,
406865,
406866,
406867,
406868,
406869,
406870,
406871,
406872,
406873,
406874,
406875,
406876,
406877,
406878,
406879,
406880,
406881,
406882,
406883,
406884,
406885,
406886,
406887,
406888,
406889,
406890,
406891,
406892,
406893,
406894,
406895,
406896,
406897,
406898,
406899,
406900,
406901,
406902,
406903,
406904,
406905,
406906,
406907,
406908,
406909,
406910,
406911,
406912,
406913,
406914,
406915,
406916,
406917,
406918,
406919,
406920,
406921,
406922,
406923,
406924,
406925,
406926,
406927,
406928,
411910,
412039,
416300,
416301,
416303,
416304,
416305,
416307,
416308,
416309,
416310,
416311,
482508,
494666,
520153,
520155,
520156,
520157,
520158,
566617,
566618,
566619,
566620,
566621,
566622,
584325,
584327,
584330,
584332,
584333,
584335,
584339,
584359,
584370,
593489,
593490,
593491,
593492,
593493,
593494,
593495,
593496,
593497,
593498,
593499,
593500,
593501,
593502,
593503,
593504,
593505,
593506,
593507,
593508,
593509,
593510,
593511,
593512,
593513,
593514,
593515,
593516,
593517,
593518,
593519,
593520,
593521,
593522,
593523,
593524,
593525,
593526,
593527,
593528,
593529,
593530,
593531,
593532,
593533,
593534,
593535,
593536,
593537,
593538,
593539,
593540,
593541,
593542,
593543,
593544,
593545,
593546,
593547,
593548,
593549,
593550,
593551,
593552,
593553,
593554,
593555,
593556,
593557,
593558,
593559,
593560,
593561,
593562,
593563,
593564,
593565,
593566,
593567,
593568,
593569,
593570,
593571,
593572,
593573,
593574,
593575,
593576,
593577,
593578,
616037,
616039,
616041,
618234,
618235,
618236,
618237,
618238,
618239,
618240,
618241,
618242,
618243,
618244,
618245,
618246,
618247,
618248,
618249,
618250,
618251,
618252,
618253,
618254,
618255,
618256,
618257,
618258,
618259,
618260,
618261,
618262,
618263,
618264,
618265,
618266,
618267,
618268,
618269,
618270,
618271,
618272,
618273,
618274,
618275,
618276,
618277,
618278,
618279,
618280,
618281,
618282,
618283,
618284,
618285,
618286,
618287,
618288,
618289,
618290,
618291,
618292,
618293,
618294,
618295,
618296,
618297,
618298,
618299,
618300,
618301,
618302,
618303,
618304,
618305,
618306,
618307,
618308,
618309,
618310,
618311,
618312,
618313,
618314,
618315,
618316,
618317,
618318,
618319,
618320,
618321,
618322,
618323,
618324,
618325,
618326,
618327,
618328,
618329,
618330,
618331,
618332,
618333,
618334,
618335,
618336,
618337,
618338,
618339,
618340,
618341,
618342,
618343,
618344,
618345,
618346,
618347,
618348,
618349,
618350,
618351,
618352,
618353,
618354,
618355,
618356,
618357,
618358,
618359,
618360,
618361,
618362,
618363,
618364,
618365,
618366,
618367,
618368,
618369,
618370,
618371,
618372,
618373,
618374,
618375,
618376,
618377,
618378,
618379,
618380,
618383,
618384,
618385,
618386,
618387,
618388,
618389,
618390,
618391,
618392,
618393,
618394,
618395,
618396,
618397,
618398,
618399,
618400,
618401,
618402,
618403,
618404,
618405,
618406,
618407,
618408,
618409,
618410,
618411,
618413,
618414,
618415,
618416,
618417,
618418,
618419,
618420,
618421,
618422,
618423,
618424,
618425,
618426,
618427,
618428,
618429,
618430,
618431,
618432,
618591,
618750,
618751,
618890,
618923,
618924,
618925,
618926,
618927,
618929,
618930,
618931,
618932,
618933,
618934,
618935,
618936,
618937,
618938,
618939,
618940,
618941,
618942,
618943,
618944,
618945,
618946,
618948,
618950,
618951,
618952,
618953,
618954,
618955,
618956,
618957,
618958,
618959,
618960,
618961,
643744,
647773,
647775,
647782,
647784,
647785,
647786,
654271,
654272,
654273,
654274,
654275,
654276,
654724,
705407,
705409,
705411,
705413,
705414,
705415,
705417,
705418,
705420,
705421,
705422,
712612,
712613,
712614,
712615,
712616,
712617,
712618,
712619,
712620,
712621,
713347,
713348,
713349,
713350,
713352,
713354,
713355,
713356,
713358,
713360,
713375,
713376,
713377,
713379,
713408,
713409,
713410,
713411,
713412,
713413,
713414,
713415,
713416,
713417,
713473,
713475,
713476,
726268,
726269,
730297,
730298,
730301,
730302,
730303,
730304,
730305,
730306,
730307,
730308,
730309,
730310,
730311,
730312,
730314,
730317,
730320,
730321,
730322,
730323,
730324,
730325,
730326,
730327,
730328,
730329,
730330,
730331,
730480,
730481,
730517,
730519,
730521,
730643,
730644,
730645,
730646,
730647,
730649,
730652,
730669,
730670,
730673,
730674,
730675,
730676,
730677,
730678,
730679,
730680,
730681,
730682,
730683,
730684,
730685,
730686,
730687,
730688,
730689,
730690,
730692,
730693,
730694,
730696,
730821,
730823,
730824,
730826,
730828,
730830,
730831,
730833,
730834,
730835,
733404,
733405,
733406,
733407,
733408,
733409,
742379,
742394,
742458,
742459,
742654,
742860,
745965,
755585,
755586,
755587,
755588,
764336,
764337,
764338,
764343,
764344,
764345,
764347,
764351,
764373,
764382,
764383,
767377,
767378,
767379,
767380,
767381,
767382,
767385,
783457,
783458,
783459,
783460,
783461,
783462,
783463,
783464,
783465,
787272,
787274,
798421,
798422,
798423,
798424,
798425,
802171,
812579,
812580,
812581,
812582,
812583,
812584,
812585,
812586,
812588,
823983,
823984,
850084,
857420,
857448,
857449,
857451,
857453,
867098,
867103,
867104,
867107,
867110,
867128,
867142,
867212,
867230,
867243,
867245,
867257,
867304,
867306,
867314,
867391,
867394,
867441,
867480,
867481,
867483,
867484,
867499,
871286,
871287,
871288,
871289,
880068,
880070,
880072,
880073,
880075,
880076,
880077,
880078,
880079,
880080,
880081,
880082,
880083,
880084,
880085,
880086,
880087,
880088,
880089,
883924,
883925,
883926,
883927,
883928,
883929,
883930,
883931,
883932,
883933,
883934,
883935,
883936,
883937,
883938,
883939,
883940,
883941,
883942,
883943,
883944,
883945,
883946,
883947,
883948,
883949,
883950,
883951,
883952,
883953,
883954,
883955,
883956,
883957,
883958,
883959,
883960,
883961,
883962,
883963,
883964,
883965,
883966,
883967,
883968,
883969,
883970,
883971,
883972,
883973,
883974,
883975,
883976,
883977,
883978,
883979,
883980,
883981,
883982,
883983,
883984,
883985,
883986,
883987,
883988,
883989,
883990,
883991,
883992,
883993,
883994,
883995,
883996,
883997,
883998,
883999,
884000,
884001,
884002,
884003,
884004,
884005,
884006,
884007,
884008,
884009,
884010,
884011,
884012,
884013,
884014,
884015,
884016,
884017,
884018,
884019,
884020,
884021,
884022,
884023,
884024,
884025,
884026,
884027,
884028,
884029,
884030,
884031,
884032,
884033,
884034,
884035,
884036,
884037,
884038,
884039,
884040,
884041,
884042,
884043,
884044,
884045,
884046,
884047,
884048,
884049,
884050,
884051,
884052,
884053,
884054,
884055,
884056,
884057,
884058,
884059,
884060,
884061,
884062,
884063,
884064,
884065,
884066,
884067,
884068,
884069,
884070,
884071,
884072,
884073,
884074,
884075,
884076,
884077,
884078,
884079,
884080,
884081,
884082,
884083,
884084,
884085,
884086,
884087,
884088,
884089,
884090,
884091,
884092,
884093,
884094,
884095,
884096,
884097,
884098,
884099,
884100,
884101,
884102,
884103,
884104,
884105,
884106,
884107,
884108,
884109,
884110,
884111,
884112,
884113,
884114,
884115,
884116,
884117,
884118,
884119,
884120,
884121,
884122,
884123,
884124,
884125,
884126,
884127,
884128,
884129,
884130,
884131,
884132,
884133,
884134,
884135,
884136,
884137,
884138,
884139,
884140,
884141,
884142,
884143,
884144,
884145,
884146,
884147,
884148,
884149,
884150,
884151,
884152,
884153,
884154,
884155,
884156,
884157,
884158,
884159,
884160,
884161,
884162,
884163,
884164,
884165,
884166,
884167,
884168,
884169,
884170,
884171,
884172,
884173,
884174,
884175,
884176,
884177,
884178,
884179,
884180,
884181,
884182,
884183,
884184,
884185,
884186,
884187,
884188,
884189,
884190,
884191,
884192,
884193,
884194,
884195,
884196,
884197,
884198,
884199,
884200,
884201,
884202,
884203,
884204,
884205,
884206,
884207,
884208,
884209,
884210,
884211,
884212,
884213,
884214,
884215,
884216,
884217,
884218,
884219,
884220,
884221,
884222,
884223,
884224,
884225,
884226,
884227,
884228,
884229,
884231,
884232,
884233,
884234,
884235,
884236,
884237,
884238,
884239,
884240,
884241,
884242,
884243,
884244,
884245,
884246,
884247,
884248,
884249,
884250,
884251,
884252,
884253,
884254,
884255,
884256,
884257,
884258,
884259,
884260,
884261,
884262,
884263,
884264,
884265,
884266,
884267,
884268,
884269,
884270,
884271,
884272,
884273,
884274,
884275,
884276,
884277,
884278,
884279,
884280,
884281,
884282,
884283,
884284,
884285,
884286,
884287,
884288,
884289,
884290,
884291,
884292,
884293,
884294,
884295,
884298,
884299,
884300,
884301,
884302,
884303,
884304,
884305,
884306,
884307,
884308,
884309,
884310,
884311,
884312,
884313,
884314,
884315,
884316,
884317,
884318,
884319,
884320,
884321,
884322,
884323,
884324,
884325,
884326,
884327,
884328,
884329,
884330,
884331,
884332,
884333,
884334,
884335,
884336,
884337,
884338,
884339,
884340,
884341,
884342,
884343,
884344,
884345,
884346,
884347,
884348,
884349,
884350,
884351,
884352,
884353,
884354,
884355,
884356,
884357,
884358,
884359,
884362,
884363,
884364,
884365,
884366,
884367,
884368,
884369,
884370,
884371,
884372,
884373,
884374,
884375,
884376,
884377,
884378,
884380,
884381,
884382,
884383,
884384,
884385,
884386,
884387,
884388,
884389,
884390,
884391,
884392,
884393,
884394,
884395,
884396,
884397,
884398,
884399,
884400,
884401,
884402,
884403,
884404,
884405,
884406,
884407,
884408,
884409,
884410,
884411,
884412,
884413,
884414,
884415,
884416,
884417,
884418,
884419,
884420,
884421,
884422,
884423,
884424,
884425,
884426,
884427,
884428,
884429,
884430,
884431,
884432,
884433,
884434,
884435,
884436,
884437,
884438,
884439,
884440,
884441,
884442,
884443,
884444,
884445,
884446,
884447,
884448,
884449,
884450,
884451,
884452,
884453,
884454,
884455,
884456,
884457,
884458,
884459,
884460,
884461,
884462,
884463,
884464,
884465,
884466,
884467,
884468,
884469,
884470,
884471,
884472,
884473,
884474,
884475,
884476,
884477,
884478,
884479,
884480,
884481,
884482,
884483,
884484,
884485,
884486,
884487,
884488,
884489,
884490,
884491,
884492,
884493,
884494,
884495,
884496,
884497,
884498,
884499,
884500,
884501,
884502,
884503,
884504,
884505,
884506,
884507,
884508,
884509,
884510,
884511,
884512,
884513,
884514,
884515,
884516,
884517,
884518,
884519,
884520,
884521,
884522,
884523,
884524,
884525,
884526,
884527,
884528,
884529,
884530,
884531,
884532,
884534,
884535,
885170,
885171,
885172,
885173,
885175,
885176,
885177,
885178,
885179,
885180,
885181,
885182,
885183,
885184,
885185,
885186,
892006,
892008,
892009,
892010,
892011,
892012,
892013,
892014,
892015,
892016,
892017,
892018,
892019,
892020,
892021,
892022,
892023,
892024,
892027,
892028,
892029,
892030,
892031,
892032,
892033,
892034,
892035,
892036,
892037,
892038,
892039,
892040,
892041,
892042,
892043,
892044,
892045,
892046,
892047,
892048,
897322,
897323,
897324,
897325,
897326,
897327,
897328,
897329,
897330,
897331,
897352,
897354,
897357,
897359,
897608,
897609,
897610,
897612,
897613,
897614,
908351,
908352,
908353,
908354,
908355,
908356,
908357,
908358,
908359,
908360,
908361,
908362,
908363,
908365,
908366,
908368,
908370,
908371,
908374,
908376,
908379,
908381,
908383,
908385,
908387,
908390,
908393,
908396,
908399,
908401,
908402,
908404,
908405,
908407,
908408,
908412,
908414,
908415,
908416,
908417,
908418,
908419,
908420,
908421,
908422,
908423,
908426,
908431,
908433,
908848,
908849,
908850,
908851,
908852,
908853,
908855,
908856,
908857,
908859,
908860,
908861,
908864,
908865,
908866,
908868,
908869,
908871,
914519,
914540,
